FFT_VER3/FFT_VER3.sim/sim_1/behav/xsim/fft.vcd
$date
   Tue Aug 19 20:13:49 2025
$end

$version
  2024.1
  $dumpfile ("fft.vcd") 
$end

$timescale
  1ps
$end

$scope module fft_tb $end
$var reg 1 ! clk $end
$var reg 1 " rst $end
$var reg 1 # trig $end
$var wire 40 $ douta [39:0] $end
$var wire 40 % doutb [39:0] $end
$var wire 40 & dout_tw [39:0] $end
$var wire 8 ' addra [7:0] $end
$var wire 8 ( addrb [7:0] $end
$var wire 11 ) addr_tw [10:0] $end
$var wire 1 * wr $end
$var wire 1 + done $end
$var wire 24 , d_fifo_ram [23:0] $end
$var wire 1 - wr_fifo_ram $end
$var wire 8 . addr_fifo_ram [7:0] $end
$var integer 32 / i [31:0] $end
$scope module fft_inst $end
$var wire 1 0 clk $end
$var wire 1 1 rst $end
$var wire 1 2 trig $end
$var wire 40 % doutb [39:0] $end
$var wire 40 & dout_tw [39:0] $end
$var reg 40 3 douta [39:0] $end
$var reg 11 4 addr_tw [10:0] $end
$var reg 8 5 addrb [7:0] $end
$var reg 8 6 addra [7:0] $end
$var reg 1 7 wr $end
$var reg 1 8 done $end
$var reg 24 9 d_fifo_ram [23:0] $end
$var reg 1 : wr_fifo_ram $end
$var reg 8 ; addr_fifo_ram [7:0] $end
$var reg 40 < tw [39:0] $end
$var reg 20 = in1_real [19:0] $end
$var reg 20 > in1_imag [19:0] $end
$var reg 20 ? in2_real [19:0] $end
$var reg 20 @ in2_imag [19:0] $end
$var reg 20 A w_real [19:0] $end
$var reg 20 B w_imag [19:0] $end
$var wire 20 C out1_real [19:0] $end
$var wire 20 D out1_imag [19:0] $end
$var wire 20 E out2_real [19:0] $end
$var wire 20 F out2_imag [19:0] $end
$var reg 4 G state [3:0] $end
$var reg 9 H st_ctr [8:0] $end
$var reg 3 I flipper [2:0] $end
$var reg 1 J latency_ctrl $end
$var reg 40 K d1 [39:0] $end
$var reg 40 L d2 [39:0] $end
$var reg 20 M d1_1 [19:0] $end
$var reg 20 N d1_2 [19:0] $end
$var reg 20 O d2_1 [19:0] $end
$var reg 20 P d2_2 [19:0] $end
$scope module unit_1 $end
$var wire 20 Q in1_real [19:0] $end
$var wire 20 R in1_imag [19:0] $end
$var wire 20 S in2_real [19:0] $end
$var wire 20 T in2_imag [19:0] $end
$var wire 20 U w_real [19:0] $end
$var wire 20 V w_imag [19:0] $end
$var wire 20 C out1_real [19:0] $end
$var wire 20 D out1_imag [19:0] $end
$var wire 20 E out2_real [19:0] $end
$var wire 20 F out2_imag [19:0] $end
$var wire 40 W rw_r2 [39:0] $end
$var wire 40 X iw_i2 [39:0] $end
$var wire 40 Y rw_i2 [39:0] $end
$var wire 40 Z iw_r2 [39:0] $end
$var wire 20 [ rw_r2_shifted [19:0] $end
$var wire 20 \ iw_i2_shifted [19:0] $end
$var wire 20 ] rw_i2_shifted [19:0] $end
$var wire 20 ^ iw_r2_shifted [19:0] $end
$var wire 20 _ rw_r2_shifted_t [19:0] $end
$var wire 20 ` iw_i2_shifted_t [19:0] $end
$var wire 20 a rw_i2_shifted_t [19:0] $end
$var wire 20 b iw_r2_shifted_t [19:0] $end
$var wire 20 c out1_real_mid [19:0] $end
$var wire 20 d out1_imag_mid [19:0] $end
$var wire 20 e out2_real_mid [19:0] $end
$var wire 20 f out2_imag_mid [19:0] $end
$upscope $end
$upscope $end
$scope module ram_inst $end
$var wire 1 g clk $end
$var wire 1 * wr $end
$var wire 8 ' addra [7:0] $end
$var wire 8 ( addrb [7:0] $end
$var wire 40 $ dina [39:0] $end
$var reg 40 h doutb [39:0] $end
$upscope $end
$scope module rom_inst $end
$var wire 1 i clk $end
$var wire 10 j addr [9:0] $end
$var reg 24 k dout [23:0] $end
$var integer 32 l i [31:0] $end
$var integer 32 m j [31:0] $end
$scope function W_k $end
$var reg 24 n W_k [23:0] $end
$var reg 7 o k [6:0] $end
$upscope $end
$upscope $end
$scope module fifo_inst $end
$var wire 1 p clk $end
$var wire 1 - wr $end
$var wire 8 . addra [7:0] $end
$var wire 24 , dina [23:0] $end
$var integer 32 q i [31:0] $end
$upscope $end
$scope begin Block78_18 $end
$var reg 32 r wmemtrnsf_fd [31:0] $end
$scope begin Block78_19 $end
$var reg 32 s i1 [31:0] $end
$upscope $end
$upscope $end
$scope begin Block82_20 $end
$var reg 32 t wmemtrnsf_fd [31:0] $end
$scope begin Block82_21 $end
$var reg 32 u i1 [31:0] $end
$upscope $end
$upscope $end
$upscope $end
$enddefinitions $end

#0
$dumpvars
0!
1"
0#
b0 $
bx %
bzxxxxxxxxxxxxxxxxxxxxxxxx &
b0 '
b0 (
b0 )
0*
0+
b0 ,
0-
b0 .
bx /
00
11
02
b0 3
b0 4
b0 5
b0 6
07
08
b0 9
0:
b0 ;
b0 <
b0 =
b0 >
b0 ?
b0 @
b0 A
b0 B
b0 C
b0 D
b0 E
b0 F
b0 G
b0 H
b0 I
0J
b0 K
b0 L
b0 M
b0 N
b0 O
b0 P
b0 Q
b0 R
b0 S
b0 T
b0 U
b0 V
b0 W
b0 X
b0 Y
b0 Z
b0 [
b0 \
b0 ]
b0 ^
b0 _
b0 `
b0 a
b0 b
b0 c
b0 d
b0 e
b0 f
0g
bx h
0i
b0 j
bx k
b10 l
b10000000 m
b111111001110100000000001 n
b1111111 o
0p
b100000000 q
b0 r
b0 s
b0 t
b0 u
$end

#5000
1!
b10011000010 %
bz000000000000011111111111 &
10
1g
b10011000010 h
1i
b11111111111 k
1p

#10000
0!
00
0g
0i
0p

#15000
1!
10
1g
1i
1p

#20000
0!
0"
00
01
0g
0i
0p

#25000
1!
10
1g
1i
1p

#30000
0!
1#
00
12
0g
0i
0p

#35000
1!
10
b1 G
1g
1i
1p

#40000
0!
0#
00
02
0g
0i
0p

#45000
1!
10
1J
1g
1i
1p

#50000
0!
00
0g
0i
0p

#55000
1!
10
b1 I
0J
1g
1i
1p

#60000
0!
00
0g
0i
0p

#65000
1!
10
b10011000010 =
b10011000010 C
b10011000010 E
b1 H
b10 I
b10011000010 Q
b10011000010 c
b10011000010 e
1g
1i
1p

#70000
0!
00
0g
0i
0p

#75000
1!
b10000000 (
10
b10000000 5
1J
1g
1i
1p

#80000
0!
00
0g
0i
0p

#85000
1!
b111110000 %
b1 )
10
b1 4
bz000000000000011111111111 <
b11 I
0J
1g
b111110000 h
1i
b1 j
1p

#90000
0!
00
0g
0i
0p

#95000
1!
10
b111110000 ?
b11111111111 A
b11010110001 C
b1011010011 E
b100 I
b111110000 S
b11111111111 U
b11110111111000010000 W
b111101111 [
b111101111 _
b11010110001 c
b1011010011 e
1g
1i
1p

#100000
0!
00
0g
0i
0p

#105000
1!
b11010110001 $
1*
10
b11010110001 3
17
b101 I
1g
1i
1p

#110000
0!
00
0g
0i
0p

#115000
1!
b1011010011 $
b10000000 '
10
b1011010011 3
b10000000 6
b10 H
b0 I
1g
1i
1p

#120000
0!
00
0g
0i
0p

#125000
1!
b1000000 (
0*
10
b1000000 5
07
1J
1g
1i
1p

#130000
0!
00
0g
0i
0p

#135000
1!
b1100010010 %
10
b1 I
0J
1g
b1100010010 h
1i
1p

#140000
0!
00
0g
0i
0p

#145000
1!
10
b1100010010 =
b10100000001 C
b100100011 E
b11 H
b10 I
b1100010010 Q
b10100000001 c
b100100011 e
1g
1i
1p

#150000
0!
00
0g
0i
0p

#155000
1!
b11000000 (
10
b11000000 5
1J
1g
1i
1p

#160000
0!
00
0g
0i
0p

#165000
1!
b110101000 %
b10 )
10
b10 4
b11 I
0J
1g
b110101000 h
1i
b10 j
1p

#170000
0!
00
0g
0i
0p

#175000
1!
10
b110101000 ?
b10010111001 C
b101101011 E
b100 I
b110101000 S
b11010011111001011000 W
b110100111 [
b110100111 _
b10010111001 c
b101101011 e
1g
1i
1p

#180000
0!
00
0g
0i
0p

#185000
1!
b10010111001 $
b1000000 '
1*
10
b10010111001 3
b1000000 6
17
b101 I
1g
1i
1p

#190000
0!
00
0g
0i
0p

#195000
1!
b101101011 $
b11000000 '
10
b101101011 3
b11000000 6
b100 H
b0 I
1g
1i
1p

#200000
0!
00
0g
0i
0p

#205000
1!
b100000 (
0*
10
b100000 5
07
1J
1g
1i
1p

#210000
0!
00
0g
0i
0p

#215000
1!
b1100110001 %
10
b1 I
0J
1g
b1100110001 h
1i
1p

#220000
0!
00
0g
0i
0p

#225000
1!
10
b1100110001 =
b10011011000 C
b110001010 E
b101 H
b10 I
b1100110001 Q
b10011011000 c
b110001010 e
1g
1i
1p

#230000
0!
00
0g
0i
0p

#235000
1!
b10100000 (
10
b10100000 5
1J
1g
1i
1p

#240000
0!
00
0g
0i
0p

#245000
1!
b100010011 %
b11 )
10
b11 4
b11 I
0J
1g
b100010011 h
1i
b11 j
1p

#250000
0!
00
0g
0i
0p

#255000
1!
10
b100010011 ?
b10001000011 C
b1000011111 E
b100 I
b100010011 S
b10001001011011101101 W
b100010010 [
b100010010 _
b10001000011 c
b1000011111 e
1g
1i
1p

#260000
0!
00
0g
0i
0p

#265000
1!
b10001000011 $
b100000 '
1*
10
b10001000011 3
b100000 6
17
b101 I
1g
1i
1p

#270000
0!
00
0g
0i
0p

#275000
1!
b1000011111 $
b10100000 '
10
b1000011111 3
b10100000 6
b110 H
b0 I
1g
1i
1p

#280000
0!
00
0g
0i
0p

#285000
1!
b1100000 (
0*
10
b1100000 5
07
1J
1g
1i
1p

#290000
0!
00
0g
0i
0p

#295000
1!
b11111111111011100010 %
10
b1 I
0J
1g
b11111111111011100010 h
1i
1p

#300000
0!
00
0g
0i
0p

#305000
1!
10
b11111111111011100010 =
b11111111111111110100 C
b11111111110111010000 E
b111 H
b10 I
b11111111111011100010 Q
b11111111111111110100 c
b11111111110111010000 e
1g
1i
1p

#310000
0!
00
0g
0i
0p

#315000
1!
b11100000 (
10
b11100000 5
1J
1g
1i
1p

#320000
0!
00
0g
0i
0p

#325000
1!
b100011000 %
b100 )
10
b100 4
b11 I
0J
1g
b100011000 h
1i
b100 j
1p

#330000
0!
00
0g
0i
0p

#335000
1!
10
b100011000 ?
b11111111111111111001 C
b11111111110111001011 E
b100 I
b100011000 S
b10001011111011101000 W
b100010111 [
b100010111 _
b11111111111111111001 c
b11111111110111001011 e
1g
1i
1p

#340000
0!
00
0g
0i
0p

#345000
1!
b11111111111111111001 $
b1100000 '
1*
10
b11111111111111111001 3
b1100000 6
17
b101 I
1g
1i
1p

#350000
0!
00
0g
0i
0p

#355000
1!
b11111111110111001011 $
b11100000 '
10
b11111111110111001011 3
b11100000 6
b1000 H
b0 I
1g
1i
1p

#360000
0!
00
0g
0i
0p

#365000
1!
b10000 (
0*
10
b10000 5
07
1J
1g
1i
1p

#370000
0!
00
0g
0i
0p

#375000
1!
b10011010000 %
10
b1 I
0J
1g
b10011010000 h
1i
1p

#380000
0!
00
0g
0i
0p

#385000
1!
10
b10011010000 =
b10111100111 C
b1110111001 E
b1001 H
b10 I
b10011010000 Q
b10111100111 c
b1110111001 e
1g
1i
1p

#390000
0!
00
0g
0i
0p

#395000
1!
b10010000 (
10
b10010000 5
1J
1g
1i
1p

#400000
0!
00
0g
0i
0p

#405000
1!
b10010110001 %
b101 )
10
b101 4
b11 I
0J
1g
b10010110001 h
1i
b101 j
1p

#410000
0!
00
0g
0i
0p

#415000
1!
10
b10010110001 ?
b100110000000 C
b100000 E
b100 I
b10010110001 S
b1001011000001101001111 W
b10010110000 [
b10010110000 _
b100110000000 c
b100000 e
1g
1i
1p

#420000
0!
00
0g
0i
0p

#425000
1!
b100110000000 $
b10000 '
1*
10
b100110000000 3
b10000 6
17
b101 I
1g
1i
1p

#430000
0!
00
0g
0i
0p

#435000
1!
b100000 $
b10010000 '
10
b100000 3
b10010000 6
b1010 H
b0 I
1g
1i
1p

#440000
0!
00
0g
0i
0p

#445000
1!
b1010000 (
0*
10
b1010000 5
07
1J
1g
1i
1p

#450000
0!
00
0g
0i
0p

#455000
1!
b10000011001 %
10
b1 I
0J
1g
b10000011001 h
1i
1p

#460000
0!
00
0g
0i
0p

#465000
1!
10
b10000011001 =
b100011001001 C
b11111111111101101001 E
b1011 H
b10 I
b10000011001 Q
b100011001001 c
b11111111111101101001 e
1g
1i
1p

#470000
0!
00
0g
0i
0p

#475000
1!
b11010000 (
10
b11010000 5
1J
1g
1i
1p

#480000
0!
00
0g
0i
0p

#485000
1!
b1111011001 %
b110 )
10
b110 4
b11 I
0J
1g
b1111011001 h
1i
b110 j
1p

#490000
0!
00
0g
0i
0p

#495000
1!
10
b1111011001 ?
b11111110001 C
b1000001 E
b100 I
b1111011001 S
b111101100010000100111 W
b1111011000 [
b1111011000 _
b11111110001 c
b1000001 e
1g
1i
1p

#500000
0!
00
0g
0i
0p

#505000
1!
b11111110001 $
b1010000 '
1*
10
b11111110001 3
b1010000 6
17
b101 I
1g
1i
1p

#510000
0!
00
0g
0i
0p

#515000
1!
b1000001 $
b11010000 '
10
b1000001 3
b11010000 6
b1100 H
b0 I
1g
1i
1p

#520000
0!
00
0g
0i
0p

#525000
1!
b110000 (
0*
10
b110000 5
07
1J
1g
1i
1p

#530000
0!
00
0g
0i
0p

#535000
1!
b111110101 %
10
b1 I
0J
1g
b111110101 h
1i
1p

#540000
0!
00
0g
0i
0p

#545000
1!
10
b111110101 =
b10111001101 C
b11111111111000011101 E
b1101 H
b10 I
b111110101 Q
b10111001101 c
b11111111111000011101 e
1g
1i
1p

#550000
0!
00
0g
0i
0p

#555000
1!
b10110000 (
10
b10110000 5
1J
1g
1i
1p

#560000
0!
00
0g
0i
0p

#565000
1!
b11111111111010111001 %
b111 )
10
b111 4
b11 I
0J
1g
b11111111111010111001 h
1i
b111 j
1p

#570000
0!
00
0g
0i
0p

#575000
1!
10
b11111111111010111001 ?
b10101110 C
b1100111100 E
b100 I
b11111111111010111001 S
b1111111111111111111101011100100101000111 W
b11111111111010111001 [
b11111111111010111001 _
b10101110 c
b1100111100 e
1g
1i
1p

#580000
0!
00
0g
0i
0p

#585000
1!
b10101110 $
b110000 '
1*
10
b10101110 3
b110000 6
17
b101 I
1g
1i
1p

#590000
0!
00
0g
0i
0p

#595000
1!
b1100111100 $
b10110000 '
10
b1100111100 3
b10110000 6
b1110 H
b0 I
1g
1i
1p

#600000
0!
00
0g
0i
0p

#605000
1!
b1110000 (
0*
10
b1110000 5
07
1J
1g
1i
1p

#610000
0!
00
0g
0i
0p

#615000
1!
b11111111101110000101 %
10
b1 I
0J
1g
b11111111101110000101 h
1i
1p

#620000
0!
00
0g
0i
0p

#625000
1!
10
b11111111101110000101 =
b11111111101000111110 C
b11111111110011001100 E
b1111 H
b10 I
b11111111101110000101 Q
b11111111101000111110 c
b11111111110011001100 e
1g
1i
1p

#630000
0!
00
0g
0i
0p

#635000
1!
b11110000 (
10
b11110000 5
1J
1g
1i
1p

#640000
0!
00
0g
0i
0p

#645000
1!
b110111110 %
b1000 )
10
b1000 4
b11 I
0J
1g
b110111110 h
1i
b1000 j
1p

#650000
0!
00
0g
0i
0p

#655000
1!
10
b110111110 ?
b11111111110101000010 C
b11111111100111001000 E
b100 I
b110111110 S
b11011110111001000010 W
b110111101 [
b110111101 _
b11111111110101000010 c
b11111111100111001000 e
1g
1i
1p

#660000
0!
00
0g
0i
0p

#665000
1!
b11111111110101000010 $
b1110000 '
1*
10
b11111111110101000010 3
b1110000 6
17
b101 I
1g
1i
1p

#670000
0!
00
0g
0i
0p

#675000
1!
b11111111100111001000 $
b11110000 '
10
b11111111100111001000 3
b11110000 6
b10000 H
b0 I
1g
1i
1p

#680000
0!
00
0g
0i
0p

#685000
1!
b1000 (
0*
10
b1000 5
07
1J
1g
1i
1p

#690000
0!
00
0g
0i
0p

#695000
1!
b10100111101 %
10
b1 I
0J
1g
b10100111101 h
1i
1p

#700000
0!
00
0g
0i
0p

#705000
1!
10
b10100111101 =
b11011111010 C
b1110000000 E
b10001 H
b10 I
b10100111101 Q
b11011111010 c
b1110000000 e
1g
1i
1p

#710000
0!
00
0g
0i
0p

#715000
1!
b10001000 (
10
b10001000 5
1J
1g
1i
1p

#720000
0!
00
0g
0i
0p

#725000
1!
b11111111111010100100 %
b1001 )
10
b1001 4
b11 I
0J
1g
b11111111111010100100 h
1i
b1001 j
1p

#730000
0!
00
0g
0i
0p

#735000
1!
10
b11111111111010100100 ?
b1111100001 C
b11010011001 E
b100 I
b11111111111010100100 S
b1111111111111111111101010010000101011100 W
b11111111111010100100 [
b11111111111010100100 _
b1111100001 c
b11010011001 e
1g
1i
1p

#740000
0!
00
0g
0i
0p

#745000
1!
b1111100001 $
b1000 '
1*
10
b1111100001 3
b1000 6
17
b101 I
1g
1i
1p

#750000
0!
00
0g
0i
0p

#755000
1!
b11010011001 $
b10001000 '
10
b11010011001 3
b10001000 6
b10010 H
b0 I
1g
1i
1p

#760000
0!
00
0g
0i
0p

#765000
1!
b1001000 (
0*
10
b1001000 5
07
1J
1g
1i
1p

#770000
0!
00
0g
0i
0p

#775000
1!
b11000111 %
10
b1 I
0J
1g
b11000111 h
1i
1p

#780000
0!
00
0g
0i
0p

#785000
1!
10
b11000111 =
b11111111111101101011 C
b1000100011 E
b10011 H
b10 I
b11000111 Q
b11111111111101101011 c
b1000100011 e
1g
1i
1p

#790000
0!
00
0g
0i
0p

#795000
1!
b11001000 (
10
b11001000 5
1J
1g
1i
1p

#800000
0!
00
0g
0i
0p

#805000
1!
b1001101100 %
b1010 )
10
b1010 4
b11 I
0J
1g
b1001101100 h
1i
b1010 j
1p

#810000
0!
00
0g
0i
0p

#815000
1!
10
b1001101100 ?
b1100110010 C
b11111111111001011100 E
b100 I
b1001101100 S
b100110101110110010100 W
b1001101011 [
b1001101011 _
b1100110010 c
b11111111111001011100 e
1g
1i
1p

#820000
0!
00
0g
0i
0p

#825000
1!
b1100110010 $
b1001000 '
1*
10
b1100110010 3
b1001000 6
17
b101 I
1g
1i
1p

#830000
0!
00
0g
0i
0p

#835000
1!
b11111111111001011100 $
b11001000 '
10
b11111111111001011100 3
b11001000 6
b10100 H
b0 I
1g
1i
1p

#840000
0!
00
0g
0i
0p

#845000
1!
b101000 (
0*
10
b101000 5
07
1J
1g
1i
1p

#850000
0!
00
0g
0i
0p

#855000
1!
b10001101111 %
10
b1 I
0J
1g
b10001101111 h
1i
1p

#860000
0!
00
0g
0i
0p

#865000
1!
10
b10001101111 =
b11011011010 C
b1000000100 E
b10101 H
b10 I
b10001101111 Q
b11011011010 c
b1000000100 e
1g
1i
1p

#870000
0!
00
0g
0i
0p

#875000
1!
b10101000 (
10
b10101000 5
1J
1g
1i
1p

#880000
0!
00
0g
0i
0p

#885000
1!
b10000001111 %
b1011 )
10
b1011 4
b11 I
0J
1g
b10000001111 h
1i
b1011 j
1p

#890000
0!
00
0g
0i
0p

#895000
1!
10
b10000001111 ?
b100001111101 C
b1100001 E
b100 I
b10000001111 S
b1000000111001111110001 W
b10000001110 [
b10000001110 _
b100001111101 c
b1100001 e
1g
1i
1p

#900000
0!
00
0g
0i
0p

#905000
1!
b100001111101 $
b101000 '
1*
10
b100001111101 3
b101000 6
17
b101 I
1g
1i
1p

#910000
0!
00
0g
0i
0p

#915000
1!
b1100001 $
b10101000 '
10
b1100001 3
b10101000 6
b10110 H
b0 I
1g
1i
1p

#920000
0!
00
0g
0i
0p

#925000
1!
b1101000 (
0*
10
b1101000 5
07
1J
1g
1i
1p

#930000
0!
00
0g
0i
0p

#935000
1!
b1000011010 %
10
b1 I
0J
1g
b1000011010 h
1i
1p

#940000
0!
00
0g
0i
0p

#945000
1!
10
b1000011010 =
b11000101000 C
b11111111111000001100 E
b10111 H
b10 I
b1000011010 Q
b11000101000 c
b11111111111000001100 e
1g
1i
1p

#950000
0!
00
0g
0i
0p

#955000
1!
b11101000 (
10
b11101000 5
1J
1g
1i
1p

#960000
0!
00
0g
0i
0p

#965000
1!
b111111000 %
b1100 )
10
b1100 4
b11 I
0J
1g
b111111000 h
1i
b1100 j
1p

#970000
0!
00
0g
0i
0p

#975000
1!
10
b111111000 ?
b10000010001 C
b100011 E
b100 I
b111111000 S
b11111011111000001000 W
b111110111 [
b111110111 _
b10000010001 c
b100011 e
1g
1i
1p

#980000
0!
00
0g
0i
0p

#985000
1!
b10000010001 $
b1101000 '
1*
10
b10000010001 3
b1101000 6
17
b101 I
1g
1i
1p

#990000
0!
00
0g
0i
0p

#995000
1!
b100011 $
b11101000 '
10
b100011 3
b11101000 6
b11000 H
b0 I
1g
1i
1p

#1000000
0!
00
0g
0i
0p

#1005000
1!
b11000 (
0*
10
b11000 5
07
1J
1g
1i
1p

#1010000
0!
00
0g
0i
0p

#1015000
1!
b1010101100 %
10
b1 I
0J
1g
b1010101100 h
1i
1p

#1020000
0!
00
0g
0i
0p

#1025000
1!
10
b1010101100 =
b10010100011 C
b10110101 E
b11001 H
b10 I
b1010101100 Q
b10010100011 c
b10110101 e
1g
1i
1p

#1030000
0!
00
0g
0i
0p

#1035000
1!
b10011000 (
10
b10011000 5
1J
1g
1i
1p

#1040000
0!
00
0g
0i
0p

#1045000
1!
b11111111110100100011 %
b1101 )
10
b1101 4
b11 I
0J
1g
b11111111110100100011 h
1i
b1101 j
1p

#1050000
0!
00
0g
0i
0p

#1055000
1!
10
b11111111110100100011 ?
b11111111111111001111 C
b10110001001 E
b100 I
b11111111110100100011 S
b1111111111111111111010010001101011011101 W
b11111111110100100011 [
b11111111110100100011 _
b11111111111111001111 c
b10110001001 e
1g
1i
1p

#1060000
0!
00
0g
0i
0p

#1065000
1!
b11111111111111001111 $
b11000 '
1*
10
b11111111111111001111 3
b11000 6
17
b101 I
1g
1i
1p

#1070000
0!
00
0g
0i
0p

#1075000
1!
b10110001001 $
b10011000 '
10
b10110001001 3
b10011000 6
b11010 H
b0 I
1g
1i
1p

#1080000
0!
00
0g
0i
0p

#1085000
1!
b1011000 (
0*
10
b1011000 5
07
1J
1g
1i
1p

#1090000
0!
00
0g
0i
0p

#1095000
1!
b11111111111001010011 %
10
b1 I
0J
1g
b11111111111001010011 h
1i
1p

#1100000
0!
00
0g
0i
0p

#1105000
1!
10
b11111111111001010011 =
b11111111101101110110 C
b100110000 E
b11011 H
b10 I
b11111111111001010011 Q
b11111111101101110110 c
b100110000 e
1g
1i
1p

#1110000
0!
00
0g
0i
0p

#1115000
1!
b11011000 (
10
b11011000 5
1J
1g
1i
1p

#1120000
0!
00
0g
0i
0p

#1125000
1!
b1010001 %
b1110 )
10
b1110 4
b11 I
0J
1g
b1010001 h
1i
b1110 j
1p

#1130000
0!
00
0g
0i
0p

#1135000
1!
10
b1010001 ?
b11111111111010100011 C
b11111111111000000011 E
b100 I
b1010001 S
b101000011110101111 W
b1010000 [
b1010000 _
b11111111111010100011 c
b11111111111000000011 e
1g
1i
1p

#1140000
0!
00
0g
0i
0p

#1145000
1!
b11111111111010100011 $
b1011000 '
1*
10
b11111111111010100011 3
b1011000 6
17
b101 I
1g
1i
1p

#1150000
0!
00
0g
0i
0p

#1155000
1!
b11111111111000000011 $
b11011000 '
10
b11111111111000000011 3
b11011000 6
b11100 H
b0 I
1g
1i
1p

#1160000
0!
00
0g
0i
0p

#1165000
1!
b111000 (
0*
10
b111000 5
07
1J
1g
1i
1p

#1170000
0!
00
0g
0i
0p

#1175000
1!
b1110100111 %
10
b1 I
0J
1g
b1110100111 h
1i
1p

#1180000
0!
00
0g
0i
0p

#1185000
1!
10
b1110100111 =
b1111110111 C
b1101010111 E
b11101 H
b10 I
b1110100111 Q
b1111110111 c
b1101010111 e
1g
1i
1p

#1190000
0!
00
0g
0i
0p

#1195000
1!
b10111000 (
10
b10111000 5
1J
1g
1i
1p

#1200000
0!
00
0g
0i
0p

#1205000
1!
b10011001000 %
b1111 )
10
b1111 4
b11 I
0J
1g
b10011001000 h
1i
b1111 j
1p

#1210000
0!
00
0g
0i
0p

#1215000
1!
10
b10011001000 ?
b100001101110 C
b11111111111011100000 E
b100 I
b10011001000 S
b1001100011101100111000 W
b10011000111 [
b10011000111 _
b100001101110 c
b11111111111011100000 e
1g
1i
1p

#1220000
0!
00
0g
0i
0p

#1225000
1!
b100001101110 $
b111000 '
1*
10
b100001101110 3
b111000 6
17
b101 I
1g
1i
1p

#1230000
0!
00
0g
0i
0p

#1235000
1!
b11111111111011100000 $
b10111000 '
10
b11111111111011100000 3
b10111000 6
b11110 H
b0 I
1g
1i
1p

#1240000
0!
00
0g
0i
0p

#1245000
1!
b1111000 (
0*
10
b1111000 5
07
1J
1g
1i
1p

#1250000
0!
00
0g
0i
0p

#1255000
1!
b1101101100 %
10
b1 I
0J
1g
b1101101100 h
1i
1p

#1260000
0!
00
0g
0i
0p

#1265000
1!
10
b1101101100 =
b100000110011 C
b11111111111010100101 E
b11111 H
b10 I
b1101101100 Q
b100000110011 c
b11111111111010100101 e
1g
1i
1p

#1270000
0!
00
0g
0i
0p

#1275000
1!
b11111000 (
10
b11111000 5
1J
1g
1i
1p

#1280000
0!
00
0g
0i
0p

#1285000
1!
b10110101100 %
b10000 )
10
b10000 4
b11 I
0J
1g
b10110101100 h
1i
b10000 j
1p

#1290000
0!
00
0g
0i
0p

#1295000
1!
10
b10110101100 ?
b100100010111 C
b11111111110111000001 E
b100 I
b10110101100 S
b1011010101101001010100 W
b10110101011 [
b10110101011 _
b100100010111 c
b11111111110111000001 e
1g
1i
1p

#1300000
0!
00
0g
0i
0p

#1305000
1!
b100100010111 $
b1111000 '
1*
10
b100100010111 3
b1111000 6
17
b101 I
1g
1i
1p

#1310000
0!
00
0g
0i
0p

#1315000
1!
b11111111110111000001 $
b11111000 '
10
b11111111110111000001 3
b11111000 6
b100000 H
b0 I
1g
1i
1p

#1320000
0!
00
0g
0i
0p

#1325000
1!
b100 (
0*
10
b100 5
07
1J
1g
1i
1p

#1330000
0!
00
0g
0i
0p

#1335000
1!
b1101111101 %
10
b1 I
0J
1g
b1101111101 h
1i
1p

#1340000
0!
00
0g
0i
0p

#1345000
1!
10
b1101111101 =
b100100101000 C
b11111111110111010010 E
b100001 H
b10 I
b1101111101 Q
b100100101000 c
b11111111110111010010 e
1g
1i
1p

#1350000
0!
00
0g
0i
0p

#1355000
1!
b10000100 (
10
b10000100 5
1J
1g
1i
1p

#1360000
0!
00
0g
0i
0p

#1365000
1!
b11111111111 %
b10001 )
10
b10001 4
b11 I
0J
1g
b11111111111 h
1i
b10001 j
1p

#1370000
0!
00
0g
0i
0p

#1375000
1!
10
b11111111111 ?
b101101111011 C
b11111111101101111111 E
b100 I
b11111111111 S
b1111111111000000000001 W
b11111111110 [
b11111111110 _
b101101111011 c
b11111111101101111111 e
1g
1i
1p

#1380000
0!
00
0g
0i
0p

#1385000
1!
b101101111011 $
b100 '
1*
10
b101101111011 3
b100 6
17
b101 I
1g
1i
1p

#1390000
0!
00
0g
0i
0p

#1395000
1!
b11111111101101111111 $
b10000100 '
10
b11111111101101111111 3
b10000100 6
b100010 H
b0 I
1g
1i
1p

#1400000
0!
00
0g
0i
0p

#1405000
1!
b1000100 (
0*
10
b1000100 5
07
1J
1g
1i
1p

#1410000
0!
00
0g
0i
0p

#1415000
1!
b10001110011 %
10
b1 I
0J
1g
b10001110011 h
1i
1p

#1420000
0!
00
0g
0i
0p

#1425000
1!
10
b10001110011 =
b110001110001 C
b11111111110001110101 E
b100011 H
b10 I
b10001110011 Q
b110001110001 c
b11111111110001110101 e
1g
1i
1p

#1430000
0!
00
0g
0i
0p

#1435000
1!
b11000100 (
10
b11000100 5
1J
1g
1i
1p

#1440000
0!
00
0g
0i
0p

#1445000
1!
b11000010001 %
b10010 )
10
b10010 4
b11 I
0J
1g
b11000010001 h
1i
b10010 j
1p

#1450000
0!
00
0g
0i
0p

#1455000
1!
10
b11000010001 ?
b101010000011 C
b11111111111001100011 E
b100 I
b11000010001 S
b1100001000000111101111 W
b11000010000 [
b11000010000 _
b101010000011 c
b11111111111001100011 e
1g
1i
1p

#1460000
0!
00
0g
0i
0p

#1465000
1!
b101010000011 $
b1000100 '
1*
10
b101010000011 3
b1000100 6
17
b101 I
1g
1i
1p

#1470000
0!
00
0g
0i
0p

#1475000
1!
b11111111111001100011 $
b11000100 '
10
b11111111111001100011 3
b11000100 6
b100100 H
b0 I
1g
1i
1p

#1480000
0!
00
0g
0i
0p

#1485000
1!
b100100 (
0*
10
b100100 5
07
1J
1g
1i
1p

#1490000
0!
00
0g
0i
0p

#1495000
1!
b11111111111110001111 %
10
b1 I
0J
1g
b11111111111110001111 h
1i
1p

#1500000
0!
00
0g
0i
0p

#1505000
1!
10
b11111111111110001111 =
b10110011111 C
b11111111100101111111 E
b100101 H
b10 I
b11111111111110001111 Q
b10110011111 c
b11111111100101111111 e
1g
1i
1p

#1510000
0!
00
0g
0i
0p

#1515000
1!
b10100100 (
10
b10100100 5
1J
1g
1i
1p

#1520000
0!
00
0g
0i
0p

#1525000
1!
b11101001 %
b10011 )
10
b10011 4
b11 I
0J
1g
b11101001 h
1i
b10011 j
1p

#1530000
0!
00
0g
0i
0p

#1535000
1!
10
b11101001 ?
b1110111 C
b11111111111010100111 E
b100 I
b11101001 S
b1110100011100010111 W
b11101000 [
b11101000 _
b1110111 c
b11111111111010100111 e
1g
1i
1p

#1540000
0!
00
0g
0i
0p

#1545000
1!
b1110111 $
b100100 '
1*
10
b1110111 3
b100100 6
17
b101 I
1g
1i
1p

#1550000
0!
00
0g
0i
0p

#1555000
1!
b11111111111010100111 $
b10100100 '
10
b11111111111010100111 3
b10100100 6
b100110 H
b0 I
1g
1i
1p

#1560000
0!
00
0g
0i
0p

#1565000
1!
b1100100 (
0*
10
b1100100 5
07
1J
1g
1i
1p

#1570000
0!
00
0g
0i
0p

